{
  "project_info": {
    "project_number": "92174118350",
    "firebase_url": "https://proyecto-fin.firebaseio.com",
    "project_id": "proyecto-fin",
    "storage_bucket": "proyecto-fin.appspot.com"
  },
  "client": [
    {
      "client_info": {
        "mobilesdk_app_id": "1:92174118350:android:0f75c77014718c11",
        "android_client_info": {
          "package_name": "com.firebase.proyecto_movil_naow"
        }
      },
      "oauth_client": [
        {
          "client_id": "92174118350-fggpgpnk1mnordjqtnboc381qp4r8l86.apps.googleusercontent.com",
          "client_type": 3
        },
        {
          "client_id": "92174118350-fggpgpnk1mnordjqtnboc381qp4r8l86.apps.googleusercontent.com",
          "client_type": 3
        }
      ],
      "api_key": [
        {
          "current_key": "AIzaSyBc5GlNofyDm-adSrOnH9cVXReE7SamP3k"
        }
      ],
      "services": {
        "analytics_service": {
          "status": 1
        },
        "appinvite_service": {
          "status": 1,
          "other_platform_oauth_client": []
        },
        "ads_service": {
          "status": 2
        }
      }
    }
  ],
  "configuration_version": "1"
}